roomName;roomDescription;keyString;exitDescription
starting room;The dungeon door slams shut behind you. You are in a maze of twisty passages, all alike.;north;You see a dark doorway to the north
orb room;You are in a vast, dark hall.;south;There is a door to the south with light coming through it.
orb room open;You are in a vast, dark hall.;west;A secret door opens to the west.
